Lecture 9: Joining multiple datasets
…
#nls_term
nls_term %>% group_by(id,transnum,termnum) %>% summarise(n_per_key=n()) %>% ungroup %>% count(n_per_key)
#> # A tibble: 1 x 2
#>   n_per_key      n
#>       <int>  <int>
#> 1         1 120885

#nls_course; key doesn't exist
nls_course %>% group_by(id,transnum,termnum,crsecip) %>% summarise(n_per_key=n()) %>% ungroup %>% count(n_per_key)
#> # A tibble: 24 x 2
#>    n_per_key      n
#>        <int>  <int>
#>  1         1 403677
#>  2         2  25658
#>  3         3   4439
#>  4         4   1784
#>  5         5    715
#>  6         6    375
#>  7         7    136
#>  8         8     61
#>  9         9     37
#> 10        10     25
#> # ... with 14 more rows
…
e.g., id and transnum form the primary key for the dataset nls_trans

nls_tran %>% group_by(id,transnum) %>% summarise(n_per_key=n()) %>% ungroup %>% count(n_per_key)
#> # A tibble: 1 x 2
#>   n_per_key     n
#>       <int> <int>
#> 1         1 24253

But note that the dataset nls_course did not have a primary key

nls_course %>% group_by(id,transnum,termnum,crsecip) %>% summarise(n_per_key=n()) %>% ungroup %>% count(n_per_key)
#> # A tibble: 24 x 2
#>    n_per_key      n
#>        <int>  <int>
#>  1         1 403677
#>  2         2  25658
#>  3         3   4439
#>  4         4   1784
#>  5         5    715
#>  6         6    375
#>  7         7    136
#>  8         8     61
#>  9         9     37
#> 10        10     25
#> # ... with 14 more rows
…
Example of foreign key

With respect to the focal table nls_term and the other table nls_trans, the variables id and transnum form the foreign key because:

These variables exists in the focal table nls_term, (though they do not uniquely identifies observations in nls_term)

These variables exist in the other table nls_tran and they uniquely identifies observations in nls_tran

nls_term %>% group_by(id,transnum) %>% summarise(n_per_key=n()) %>% ungroup %>% count(n_per_key)
#> # A tibble: 34 x 2
#>    n_per_key     n
#>        <int> <int>
#>  1         1  2644
#>  2         2  2199
#>  3         3  1728
#>  4         4  1761
#>  5         5  1288
#>  6         6  1333
#>  7         7  1024
#>  8         8  1234
#>  9         9  1146
#> 10        10   911
#> # ... with 24 more rows
…
Create dataframe w/ one obs per university and in-state vs.out-of-state

df_univ_st <- df_event %>% group_by(univ_id,event_inst) %>%
  summarize(
    num_events_st =n(),
    avg_inc_st = mean(med_inc, na.rm = TRUE)
  )
df_univ_st
#> # A tibble: 32 x 4
#>    univ_id event_inst num_events_st avg_inc_st
#>      <int> <chr>              <int>      <dbl>
#>  1  100751 In-State             382     53769.
#>  2  100751 Out-State           3876     87883.
#>  3  106397 In-State             223     48188.
#>  4  106397 Out-State            771     84977.
#>  5  110635 In-State             468     85447.
#>  6  110635 Out-State            411     91146.
#>  7  110653 In-State             429     71884.
#>  8  110653 Out-State            110     77882.
#>  9  126614 In-State             375     72177.
#> 10  126614 Out-State           1064    108139.
#> # ... with 22 more rows
…
df_univ_st %>% group_by(univ_id,event_inst) %>% summarise(n_per_key=n()) %>% 
  ungroup %>% count(n_per_key) # yup!
#> # A tibble: 1 x 2
#>   n_per_key     n
#>       <int> <int>
#> 1         1    32

Merge/join the two data frames

we will use left join starting with df_univ but could use inner_join or other types too

df_univ %>%
  inner_join(df_univ_st, by="univ_id")
#> # A tibble: 32 x 7
#>    univ_id univ_name num_events avg_inc event_inst num_events_st avg_inc_st
#>      <int> <chr>          <int>   <dbl> <chr>              <int>      <dbl>
#>  1  100751 Bama            4258  85144. In-State             382     53769.
#>  2  100751 Bama            4258  85144. Out-State           3876     87883.
#>  3  106397 Arkansas         994  76848. In-State             223     48188.
#>  4  106397 Arkansas         994  76848. Out-State            771     84977.
#>  5  110635 UC Berke~        879  88124. In-State             468     85447.
#>  6  110635 UC Berke~        879  88124. Out-State            411     91146.
#>  7  110653 UC Irvine        539  73131. In-State             429     71884.
#>  8  110653 UC Irvine        539  73131. Out-State            110     77882.
#>  9  126614 CU Bould~       1439  98844. In-State             375     72177.
#> 10  126614 CU Bould~       1439  98844. Out-State           1064    108139.
#> # ... with 22 more rows
…
#id is primary key for both datasets, so use id as key variable

nls_stu_stu <- nls_stu %>% 
  inner_join(nls_stu_pets, by = "id")
#> Warning: Column `id` has different attributes on LHS and RHS of join

names(nls_stu_stu)
#>  [1] "id"       "schcode"  "bysex"    "csex"     "crace"    "cbirthm" 
#>  [7] "cbirthd"  "cbirthyr" "reqtrans" "numtrans"

#print a few obs and selected variables from joined data frame
nls_stu_stu %>% select(id,bysex,crace,reqtrans,numtrans) %>% as_factor()
#> # A tibble: 14,759 x 5
#>       id bysex                 crace           reqtrans numtrans
#>    <dbl> <fct>                 <fct>              <dbl>    <dbl>
#>  1    18 2. female             4. PUERTO RICAN        1        0
#>  2    67 1. male               2. black               1        1
#>  3    83 2. female             7. white               1        0
#>  4   315 1. male               7. white               2        2
#>  5   414 1. male               7. white               1        0
#>  6   430 1. male               4. PUERTO RICAN        1        0
#>  7   802 2. female             7. white               2        1
#>  8   836 1. male               7. white               2        1
#>  9   935 99. {LEGITIMATE SKIP} 7. white               3        2
#> 10  1040 1. male               7. white               2        2
#> # ... with 14,749 more rows
…
#id and transnum uniquely identify obs
nls_tran %>% group_by(id,transnum) %>% summarise(n_per_key=n()) %>% ungroup %>% 
  filter(n_per_key>1) %>% count(n_per_key) 
#> # A tibble: 0 x 2
#> # ... with 2 variables: n_per_key <int>, n <int>

#id uniquely identifies obs in nls_stu and id is available in nls_tran, so use id as key

#merge
nls_stu_tran <- nls_stu %>% inner_join(nls_tran, by = "id") #error warning on var labels will populate
#> Warning: Column `id` has different attributes on LHS and RHS of join

#print some obs and selected variables of merged data frame
nls_stu_tran %>% select(id,transnum,bysex,findisp,trnsflag) %>% as_factor()
#> # A tibble: 24,253 x 5
#>       id transnum bysex     findisp                   trnsflag             
#>    <dbl>    <dbl> <fct>     <fct>                     <fct>                
#>  1    18        1 2. female 6. NO RESPONSE FROM SCHO~ 0. DUMMY TRANSCRIPT  
#>  2    67        1 1. male   1. TRANSCRIPT RECEIVED    1. REQUESTED & RECEI~
#>  3    83        1 2. female 3. STUDENT NEVER ATTENDED 0. DUMMY TRANSCRIPT  
#>  4   315        1 1. male   1. TRANSCRIPT RECEIVED    1. REQUESTED & RECEI~
#>  5   315        2 1. male   1. TRANSCRIPT RECEIVED    1. REQUESTED & RECEI~
#>  6   414        1 1. male   3. STUDENT NEVER ATTENDED 0. DUMMY TRANSCRIPT  
#>  7   430        1 1. male   4. SCHOOL LOST OR DESTRO~ 0. DUMMY TRANSCRIPT  
#>  8   802        1 2. female 1. TRANSCRIPT RECEIVED    1. REQUESTED & RECEI~
#>  9   802        2 2. female 2. SCHOOL REFUSED         0. DUMMY TRANSCRIPT  
#> 10   836        1 1. male   4. SCHOOL LOST OR DESTRO~ 0. DUMMY TRANSCRIPT  
#> # ... with 24,243 more rows
…
nls_term %>% group_by(id,transnum,termnum) %>% summarise(n_per_key=n()) %>% ungroup %>% 
  filter(n_per_key>1) %>% count(n_per_key)
#> # A tibble: 0 x 2
#> # ... with 2 variables: n_per_key <int>, n <int>

#merge
nls_tran_term <- nls_tran %>% inner_join(nls_term, by = c("id","transnum"))

#print a few obs and selected vars from merged data frame
nls_tran_term %>% select(id,transnum,termnum,transnum,findisp,courses,termtype) %>% as_factor()
#> # A tibble: 120,807 x 6
#>       id transnum termnum findisp                courses termtype   
#>    <dbl>    <dbl>   <dbl> <fct>                    <dbl> <fct>      
#>  1    67        1       1 1. TRANSCRIPT RECEIVED       3 4. quarter 
#>  2    67        1       2 1. TRANSCRIPT RECEIVED       2 4. quarter 
#>  3    67        1       3 1. TRANSCRIPT RECEIVED       2 4. quarter 
#>  4    67        1       4 1. TRANSCRIPT RECEIVED       2 4. quarter 
#>  5    67        1       5 1. TRANSCRIPT RECEIVED       2 4. quarter 
#>  6    67        1       6 1. TRANSCRIPT RECEIVED       2 4. quarter 
#>  7    67        1       7 1. TRANSCRIPT RECEIVED       2 4. quarter 
#>  8    67        1       8 1. TRANSCRIPT RECEIVED       2 4. quarter 
#>  9   315        1       1 1. TRANSCRIPT RECEIVED       4 2. semester
#> 10   315        1       2 1. TRANSCRIPT RECEIVED       3 4. quarter 
#> # ... with 120,797 more rows
…
How can this semi-join be practically useful?

#inner join
inner_tran_course <- nls_tran %>% inner_join(nls_course, by = c("id","transnum"))

#semi-join
semi_tran_course <- nls_tran %>% semi_join(nls_course, by = c("id","transnum"))

#anti-join
anti_tran_course <- nls_tran %>% anti_join(nls_course, by = c("id","transnum"))

inner_tran_course %>%
  group_by(id, transnum) %>%
  count()
#> # A tibble: 18,855 x 3
#>       id transnum     n
#>    <dbl>    <dbl> <int>
#>  1    67        1    17
#>  2   315        1    68
#>  3   315        2     4
#>  4   802        1     2
#>  5   836        2    30
#>  6   935        1    49
#>  7   935        2    20
#>  8  1040        1     2
#>  9  1040        2    60
#> 10  1057        1    27
#> # ... with 18,845 more rows

semi_tran_course %>%
  group_by(id, transnum) %>%
  count()
#> # A tibble: 18,855 x 3
#>       id transnum     n
#>    <dbl>    <dbl> <int>
#>  1    67        1     1
#>  2   315        1     1
#>  3   315        2     1
#>  4   802        1     1
#>  5   836        2     1
#>  6   935        1     1
#>  7   935        2     1
#>  8  1040        1     1
#>  9  1040        2     1
#> 10  1057        1     1
#> # ... with 18,845 more rows

anti_tran_course %>%
  group_by(id, transnum) %>%
  count()
#> # A tibble: 5,398 x 3
#>       id transnum     n
#>    <dbl>    <dbl> <int>
#>  1    18        1     1
#>  2    83        1     1
#>  3   414        1     1
#>  4   430        1     1
#>  5   802        2     1
#>  6   836        1     1
#>  7   935        3     1
#>  8  1099        1     1
#>  9  1099        2     1
#> 10  1347        1     1
#> # ... with 5,388 more rows
…
