…
__"wide" data__ represented with fewer rows and more columns  
__"long" data__ represented with more rows and fewer columns

Example, Table 204.10 of the Digest for Education Statistics shows changer over time in the number and percentage of K-12 students on free/reduced lunch [LINK](http://nces.ed.gov/programs/digest/d14/tables/dt14_204.10.asp)

- Wide form display of data:

```r
#load("data/nces_digest/nces_digest_table_204_10.RData")
load(url("https://github.com/ozanj/rclass/raw/master/data/nces_digest/nces_digest_table_204_10.RData"))
table204_10
```

```
## # A tibble: 51 x 13
##    state tot_2000 tot_2010 tot_2011 tot_2012 frl_2000 frl_2010 frl_2011
##    <chr>    <dbl>    <dbl>    <dbl>    <dbl>    <dbl>    <dbl>    <dbl>
##  1 Alab…   728351   730427   731556   740475   335143   402386  420447 
##  2 Alas…   105333   132104   131166   131483    32468    50701   53238 
##  3 Ariz…   877696  1067210  1024454   990378   274277   482044  511885 
##  4 Arka…   449959   482114   483114   486157   205058   291608  294324 
##  5 Cali…  6050753  6169427  6202862  6178788  2820611  3335885 3353964.
##  6 Colo…   724349   842864   853610   863121   195148   336426  348896 
##  7 Conn…   562179   552919   543883   549295   143030   190554  194339 
##  8 Dela…   114676   128342   128470   127791    37766    61564   62774 
##  9 Dist…    68380    71263    72329    75411    47839    52027   45199 
## 10 Flor…  2434755  2641555  2668037  2691881  1079009  1479519 1535670 
## # ... with 41 more rows, and 5 more variables: frl_2012 <dbl>,
## #   p_frl_2000 <dbl>, p_frl_2010 <dbl>, p_frl_2011 <dbl>, p_frl_2012 <dbl>
```
…
- __value column__. Column name in untidy data that contains values for the new variables that will be created in the tidy data
    - this is a varname that exists in the untidy data
    - in `ipeds_hc` the value column is `efytotlt`; the values of `efytotlt` will become the values of the new variables in the tidy data
    

```r
ipeds_hc %>% 
    spread(key = lstudy, value = efytotlt)
```

```
## # A tibble: 6,951 x 5
##    instnm                                         unitid   `1`   `3` `999`
##    <chr>                                           <dbl> <dbl> <dbl> <dbl>
##  1 A T Still University of Health Sciences        177834    NA  4123  4123
##  2 Aaniiih Nakoda College                         180203   372    NA   372
##  3 Aaron's Academy of Beauty                      161615    42    NA    42
##  4 ABC Beauty College Inc                         106281    29    NA    29
##  5 ABCO Technology                                485500    58    NA    58
##  6 Abcott Institute                               461892   239    NA   239
##  7 Abdill Career College Inc                      208123   120    NA   120
##  8 Abilene Christian University                   222178  3845  1286  5131
##  9 Abington Memorial Hospital Dixon School of Nu… 210456   264    NA   264
## 10 Abraham Baldwin Agricultural College           138558  3991    NA  3991
## # ... with 6,941 more rows
```
…
```r
ipeds_hcv2 %>% select(instnm,unitid,level,efytotlt) %>%
    spread(key = level, value = efytotlt)
```

```
## # A tibble: 6,951 x 5
##    instnm                                         unitid   all  grad    ug
##    <chr>                                           <dbl> <dbl> <dbl> <dbl>
##  1 A T Still University of Health Sciences        177834  4123  4123    NA
##  2 Aaniiih Nakoda College                         180203   372    NA   372
##  3 Aaron's Academy of Beauty                      161615    42    NA    42
##  4 ABC Beauty College Inc                         106281    29    NA    29
##  5 ABCO Technology                                485500    58    NA    58
##  6 Abcott Institute                               461892   239    NA   239
##  7 Abdill Career College Inc                      208123   120    NA   120
##  8 Abilene Christian University                   222178  5131  1286  3845
##  9 Abington Memorial Hospital Dixon School of Nu… 210456   264    NA   264
## 10 Abraham Baldwin Agricultural College           138558  3991    NA  3991
## # ... with 6,941 more rows
```
…
Now, let's print some rows

- There is one row for each college-level_of_study
- Some colleges have three rows of data (ug, grad, all)
- Colleges that don't have any undergraduates or don't have any graduate students only have two rows of data

```r
ipeds_hc_na
```

```
## # A tibble: 6,265 x 5
##    instnm                               unitid level efytotlt efybkaam
##    <chr>                                 <dbl> <chr>    <dbl>    <dbl>
##  1 South University-Montgomery          101116 ug         777      122
##  2 South University-Montgomery          101116 grad       218       40
##  3 South University-Montgomery          101116 all        995      162
##  4 New Beginning College of Cosmetology 101277 ug         132        0
##  5 New Beginning College of Cosmetology 101277 all        132        0
##  6 Herzing University-Birmingham        101365 ug         675       73
##  7 Herzing University-Birmingham        101365 grad        15        5
##  8 Herzing University-Birmingham        101365 all        690       78
##  9 Prince Institute-Southeast           101958 ug          34        0
## 10 Prince Institute-Southeast           101958 all         34        0
## # ... with 6,255 more rows
```

Now let's create new versions of the enrollment variables, that replace `0` with `NA`

```r
ipeds_hc_na <- ipeds_hc_na %>% 
  mutate(
    efytotltv2 = ifelse(efytotlt == 0, NA, efytotlt),
    efybkaamv2 = ifelse(efybkaam == 0, NA, efybkaam)
  ) %>% select(instnm,unitid,level,efytotlt,efytotltv2,efybkaam,efybkaamv2)

ipeds_hc_na %>% select(unitid,level,efytotlt,efytotltv2,efybkaam,efybkaamv2)
```

```
## # A tibble: 6,265 x 6
##    unitid level efytotlt efytotltv2 efybkaam efybkaamv2
##     <dbl> <chr>    <dbl>      <dbl>    <dbl>      <dbl>
##  1 101116 ug         777        777      122        122
##  2 101116 grad       218        218       40         40
##  3 101116 all        995        995      162        162
##  4 101277 ug         132        132        0         NA
##  5 101277 all        132        132        0         NA
##  6 101365 ug         675        675       73         73
##  7 101365 grad        15         15        5          5
##  8 101365 all        690        690       78         78
##  9 101958 ug          34         34        0         NA
## 10 101958 all         34         34        0         NA
## # ... with 6,255 more rows
```
…
Let's apply `complete()` to our IPEDS dataset


```r
ipeds_hc_nav2
```

```
## # A tibble: 6,265 x 5
##    instnm                               unitid level efytotltv2 efybkaamv2
##    <chr>                                 <dbl> <chr>      <dbl>      <dbl>
##  1 South University-Montgomery          101116 ug           777        122
##  2 South University-Montgomery          101116 grad         218         40
##  3 South University-Montgomery          101116 all          995        162
##  4 New Beginning College of Cosmetology 101277 ug           132         NA
##  5 New Beginning College of Cosmetology 101277 all          132         NA
##  6 Herzing University-Birmingham        101365 ug           675         73
##  7 Herzing University-Birmingham        101365 grad          15          5
##  8 Herzing University-Birmingham        101365 all          690         78
##  9 Prince Institute-Southeast           101958 ug            34         NA
## 10 Prince Institute-Southeast           101958 all           34         NA
## # ... with 6,255 more rows
```
```r
ipeds_complete <- ipeds_hc_nav2 %>% select(unitid,level,efytotltv2,efybkaamv2) %>%
  complete(unitid, level)
```

```
## Warning: Column `unitid` has different attributes on LHS and RHS of join
```

```r
ipeds_complete
```

```
## # A tibble: 9,063 x 4
##    unitid level efytotltv2 efybkaamv2
##     <dbl> <chr>      <dbl>      <dbl>
##  1 101116 all          995        162
##  2 101116 grad         218         40
##  3 101116 ug           777        122
##  4 101277 all          132         NA
##  5 101277 grad          NA         NA
##  6 101277 ug           132         NA
##  7 101365 all          690         78
##  8 101365 grad          15          5
##  9 101365 ug           675         73
## 10 101958 all           34         NA
## # ... with 9,053 more rows
```
…
