Joining Multiple Datasets
…
# Join the nls_stu and nls_stu_pets by id variable
nls_stu_stu <- nls_stu %>% inner_join(nls_stu_pets, by = "id")

# Joined dataframe now have variables from both nls_stu and nls_stu_pets
names(nls_stu_stu)

#>  [1] "id"       "schcode"  "bysex"    "csex"     "crace"    "cbirthm" 
#>  [7] "cbirthd"  "cbirthyr" "reqtrans" "numtrans"

# Print a few obs and selected variables from joined dataframe
nls_stu_stu %>% select(id, bysex, crace, reqtrans, numtrans) %>% as_factor()

#> # A tibble: 14,759 x 5
#>       id bysex                 crace           reqtrans numtrans
#>    <dbl> <fct>                 <fct>              <dbl>    <dbl>
#>  1    18 2. female             4. PUERTO RICAN        1        0
#>  2    67 1. male               2. black               1        1
#>  3    83 2. female             7. white               1        0
#>  4   315 1. male               7. white               2        2
#>  5   414 1. male               7. white               1        0
#>  6   430 1. male               4. PUERTO RICAN        1        0
#>  7   802 2. female             7. white               2        1
#>  8   836 1. male               7. white               2        1
#>  9   935 99. {LEGITIMATE SKIP} 7. white               3        2
#> 10  1040 1. male               7. white               2        2
#> #  with 14,749 more rows
…
# Join the nls_stu and nls_tran by id variable
nls_stu_tran <- nls_stu %>% inner_join(nls_tran, by = "id")

# Joined dataframe now have variables from both nls_stu and nls_tran
names(nls_stu_tran)

#>  [1] "id"       "schcode"  "bysex"    "csex"     "crace"    "cbirthm" 
#>  [7] "cbirthd"  "cbirthyr" "transnum" "findisp"  "trnsflag" "terms"   
#> [13] "fice"     "state"    "cofcon"   "instype"  "itype"

# Print a few obs and selected variables from joined dataframe
nls_stu_tran %>% select(id, transnum, bysex, findisp, trnsflag) %>% as_factor()

#> # A tibble: 24,253 x 5
#>       id transnum bysex     findisp                     trnsflag               
#>    <dbl>    <dbl> <fct>     <fct>                       <fct>                  
#>  1    18        1 2. female 6. NO RESPONSE FROM SCHOOL  0. DUMMY TRANSCRIPT    
#>  2    67        1 1. male   1. TRANSCRIPT RECEIVED      1. REQUESTED & RECEIVED
#>  3    83        1 2. female 3. STUDENT NEVER ATTENDED   0. DUMMY TRANSCRIPT    
#>  4   315        1 1. male   1. TRANSCRIPT RECEIVED      1. REQUESTED & RECEIVED
#>  5   315        2 1. male   1. TRANSCRIPT RECEIVED      1. REQUESTED & RECEIVED
#>  6   414        1 1. male   3. STUDENT NEVER ATTENDED   0. DUMMY TRANSCRIPT    
#>  7   430        1 1. male   4. SCHOOL LOST OR DESTROYED 0. DUMMY TRANSCRIPT    
#>  8   802        1 2. female 1. TRANSCRIPT RECEIVED      1. REQUESTED & RECEIVED
#>  9   802        2 2. female 2. SCHOOL REFUSED           0. DUMMY TRANSCRIPT    
#> 10   836        1 1. male   4. SCHOOL LOST OR DESTROYED 0. DUMMY TRANSCRIPT    
#> #  with 24,243 more rows
…
inner_join(x, y, by = "keyvar")

Often, multiple variables form the key. Specify this using this syntax:

inner_join(x, y, by = c("keyvar1", "keyvar2", ...))

 Example: Joining nls_tran and nls_term by multiple variables

Recall that the student-transcript level dataset nls_tran is uniquely identified by the combination of two variables: id and transnum. Together, these variables form the primary key of nls_tran and foreign key of nls_term, the table we want to join nls_tran with.

# Join nls_tran and nls_term by multiple variables
inner_join(nls_tran, nls_term, by = c("id", "transnum"))

#> # A tibble: 120,807 x 17
#>       id transnum findisp trnsflag terms  fice state  cofcon instype   itype
#>    <dbl>    <dbl> <dbl+l> <dbl+lb> <dbl> <dbl> <dbl> <dbl+l> <dbl+l> <dbl+l>
#>  1    67        1 1 [1.  1 [1. R     8  5694     1 2 [2.  1 [1.  5 [5. 
#>  2    67        1 1 [1.  1 [1. R     8  5694     1 2 [2.  1 [1.  5 [5. 
#>  3    67        1 1 [1.  1 [1. R     8  5694     1 2 [2.  1 [1.  5 [5. 
#>  4    67        1 1 [1.  1 [1. R     8  5694     1 2 [2.  1 [1.  5 [5. 
#>  5    67        1 1 [1.  1 [1. R     8  5694     1 2 [2.  1 [1.  5 [5. 
#>  6    67        1 1 [1.  1 [1. R     8  5694     1 2 [2.  1 [1.  5 [5. 
#>  7    67        1 1 [1.  1 [1. R     8  5694     1 2 [2.  1 [1.  5 [5. 
#>  8    67        1 1 [1.  1 [1. R     8  5694     1 2 [2.  1 [1.  5 [5. 
#>  9   315        1 1 [1.  1 [1. R    20  1009     1 6 [6.  3 [3.  1 [1. 
#> 10   315        1 1 [1.  1 [1. R    20  1009     1 6 [6.  3 [3.  1 [1. 
#> #  with 120,797 more rows, and 7 more variables: termnum <dbl>, courses <dbl>,
#> #   termtype <dbl+lbl>, season <dbl+lbl>, sortdate <dbl>, gradcode <dbl+lbl>,
#> #   transfer <dbl+lbl>
…
