Across the tidyverse: processing across rows
…
Now group by “instnm” and “event_type” and get a frequency count.

How many rows and columns do you have? What do the number of rows mean?

df_event %>%
  group_by(instnm, event_type) %>%
  count() 
#> # A tibble: 80 × 3
#> # Groups:   instnm, event_type [80]
#>    instnm   event_type      n
#>    <chr>    <chr>       <int>
#>  1 Arkansas 2yr college    32
#>  2 Arkansas 4yr college    14
#>  3 Arkansas other         112
#>  4 Arkansas private hs    222
#>  5 Arkansas public hs     614
#>  6 Bama     2yr college   127
#>  7 Bama     4yr college   158
#>  8 Bama     other         608
#>  9 Bama     private hs    963
#> 10 Bama     public hs    2402
#> # ℹ 70 more rows

Bonus: Group by “instnm” and “event_type”, but this time filter for observations where “med_inc” is greater than 75000 and get a frequency count.

df_event %>%
  group_by(instnm, event_type) %>%
  filter(med_inc > 75000) %>%
  count()
#> # A tibble: 80 × 3
#> # Groups:   instnm, event_type [80]
#>    instnm   event_type      n
#>    <chr>    <chr>       <int>
#>  1 Arkansas 2yr college     7
#>  2 Arkansas 4yr college     3
#>  3 Arkansas other          30
#>  4 Arkansas private hs     99
#>  5 Arkansas public hs     303
#>  6 Bama     2yr college    21
#>  7 Bama     4yr college    42
#>  8 Bama     other         249
#>  9 Bama     private hs    477
#> 10 Bama     public hs    1478
#> # ℹ 70 more rows
…
Task

Count number of recruiting events by institution and event_type

within summarize(), we will take advantage of the helper function n()

n() “gives the current group size”; i.e., how many observations in current group

#?n
df_event %>% group_by(instnm, event_type) %>% summarize(num_events=n())
#> # A tibble: 80 × 3
#> # Groups:   instnm [16]
#>    instnm   event_type  num_events
#>    <chr>    <chr>            <int>
#>  1 Arkansas 2yr college         32
#>  2 Arkansas 4yr college         14
#>  3 Arkansas other              112
#>  4 Arkansas private hs         222
#>  5 Arkansas public hs          614
#>  6 Bama     2yr college        127
#>  7 Bama     4yr college        158
#>  8 Bama     other              608
#>  9 Bama     private hs         963
#> 10 Bama     public hs         2402
#> # ℹ 70 more rows
…
#bar chart of number of events, separete chart for each university
df_event %>% group_by(instnm, event_type) %>% 
  summarize(num_events=n()) %>%
    ggplot(aes(x=event_type, y=num_events)) +  # plot
    ylab("Number of events") + xlab("Event type") + geom_col() +
    coord_flip() + facet_wrap(~ instnm) 

Task. Count number of recruiting events by institution, event_type, and whether event is in- or out-of-state (var=event_inst)

Note: in group_by(), the optional drop argument controls whether empty groups dropped. default is drop = TRUE

df_event %>% group_by(instnm, event_type, event_inst) %>% 
  summarize(num_events=n())
#> # A tibble: 159 × 4
#> # Groups:   instnm, event_type [80]
#>    instnm   event_type  event_inst num_events
#>    <chr>    <chr>       <chr>           <int>
#>  1 Arkansas 2yr college In-State           16
#>  2 Arkansas 2yr college Out-State          16
#>  3 Arkansas 4yr college In-State            3
#>  4 Arkansas 4yr college Out-State          11
#>  5 Arkansas other       In-State           27
#>  6 Arkansas other       Out-State          85
#>  7 Arkansas private hs  In-State           21
#>  8 Arkansas private hs  Out-State         201
#>  9 Arkansas public hs   In-State          156
#> 10 Arkansas public hs   Out-State         458
#> # ℹ 149 more rows

df_event %>% group_by(instnm, event_type, event_inst, .drop = TRUE) %>% 
  summarize(num_events=n()) 
#> # A tibble: 159 × 4
#> # Groups:   instnm, event_type [80]
#>    instnm   event_type  event_inst num_events
#>    <chr>    <chr>       <chr>           <int>
#>  1 Arkansas 2yr college In-State           16
#>  2 Arkansas 2yr college Out-State          16
#>  3 Arkansas 4yr college In-State            3
#>  4 Arkansas 4yr college Out-State          11
#>  5 Arkansas other       In-State           27
#>  6 Arkansas other       Out-State          85
#>  7 Arkansas private hs  In-State           21
#>  8 Arkansas private hs  Out-State         201
#>  9 Arkansas public hs   In-State          156
#> 10 Arkansas public hs   Out-State         458
#> # ℹ 149 more rows

df_event %>% 
  group_by(as.factor(instnm), as.factor(event_type), as.factor(event_inst),
           .drop = FALSE) %>% summarize(num_events=n()) %>% arrange(num_events)
#> # A tibble: 160 × 4
#> # Groups:   as.factor(instnm), as.factor(event_type) [80]
#>    `as.factor(instnm)` `as.factor(event_type)` as.factor(event_inst…¹ num_events
#>    <fct>               <fct>                   <fct>                       <int>
#>  1 UGA                 2yr college             Out-State                       0
#>  2 UC Berkeley         2yr college             Out-State                       1
#>  3 USCC                2yr college             In-State                        2
#>  4 Arkansas            4yr college             In-State                        3
#>  5 Kansas              4yr college             In-State                        3
#>  6 NC State            2yr college             Out-State                       3
#>  7 Rutgers             4yr college             In-State                        3
#>  8 Stony Brook         4yr college             In-State                        3
#>  9 UC Irvine           2yr college             Out-State                       3
#> 10 UGA                 2yr college             In-State                        3
#> # ℹ 150 more rows
#> # ℹ abbreviated name: ¹​`as.factor(event_inst)`
…
df_event %>% group_by(instnm, event_type, event_inst) %>% 
  summarize(num_events=n()) %>%
    ggplot(aes(x=event_type, y=num_events, fill = event_inst)) +  # plot
    ylab("Number of events") + xlab("Event type") + geom_col() +
    coord_flip() + facet_wrap(~ instnm) 

Task

By university, event type, event_inst count the number of events and calculate the avg. pct white in the zip-code

df_event %>% group_by(instnm, event_type, event_inst) %>% 
  summarize(num_events=n(),
    mean_pct_white=mean(pct_white_zip, na.rm = TRUE)
  )
#> # A tibble: 159 × 5
#> # Groups:   instnm, event_type [80]
#>    instnm   event_type  event_inst num_events mean_pct_white
#>    <chr>    <chr>       <chr>           <int>          <dbl>
#>  1 Arkansas 2yr college In-State           16           68.3
#>  2 Arkansas 2yr college Out-State          16           71.4
#>  3 Arkansas 4yr college In-State            3           75.6
#>  4 Arkansas 4yr college Out-State          11           63.9
#>  5 Arkansas other       In-State           27           67.4
#>  6 Arkansas other       Out-State          85           58.6
#>  7 Arkansas private hs  In-State           21           71.1
#>  8 Arkansas private hs  Out-State         201           62.3
#>  9 Arkansas public hs   In-State          156           77.6
#> 10 Arkansas public hs   Out-State         458           68.7
#> # ℹ 149 more rows
…
3.4 count() in place of group_by() and summarise()

Recall from Section 3.1, the count() function returns the count of unique values of a particular variable. For example, if we count by event_state, we get the count of visits by state. This is the same if we were to group_by() event_state and summarise() to get the count of events by state.

event_berk %>%
  group_by(event_state) %>%
  summarise(n_state = n())
#> # A tibble: 35 × 2
#>    event_state n_state
#>    <chr>         <int>
#>  1 AL                2
#>  2 AR                3
#>  3 AZ               18
#>  4 CA              468
#>  5 CO                3
#>  6 CT                3
#>  7 DC                9
#>  8 FL               33
#>  9 GA               33
#> 10 HI                1
#> # ℹ 25 more rows

event_berk %>%
  count(event_state)
#> # A tibble: 35 × 2
#>    event_state     n
#>    <chr>       <int>
#>  1 AL              2
#>  2 AR              3
#>  3 AZ             18
#>  4 CA            468
#>  5 CO              3
#>  6 CT              3
#>  7 DC              9
#>  8 FL             33
#>  9 GA             33
#> 10 HI              1
#> # ℹ 25 more rows

If we want to calculate the percent of UC Berkeley’s visits across states, we can use the count() and mutate() functions instead of group_by() and summarize().

event_berk %>%
  group_by(event_state) %>% #group_by event state
  summarise(n_state = n()) %>% #summarize and get a count of the # of events by state
  mutate(pct_state = (n_state / sum(n_state)) * 100) #create percent variable of visits by UC Berkeley (e.g., 53% of visits in California)
#> # A tibble: 35 × 3
#>    event_state n_state pct_state
#>    <chr>         <int>     <dbl>
#>  1 AL                2     0.228
#>  2 AR                3     0.341
#>  3 AZ               18     2.05 
#>  4 CA              468    53.2  
#>  5 CO                3     0.341
#>  6 CT                3     0.341
#>  7 DC                9     1.02 
#>  8 FL               33     3.75 
#>  9 GA               33     3.75 
#> 10 HI                1     0.114
#> # ℹ 25 more rows
  
event_berk %>%
  count(event_state) %>% #count of visits by UC Berkeley by state
  mutate(pct_state = (n / sum(n)) * 100) #percent of visits by UC Berkeley across states
#> # A tibble: 35 × 3
#>    event_state     n pct_state
#>    <chr>       <int>     <dbl>
#>  1 AL              2     0.228
#>  2 AR              3     0.341
#>  3 AZ             18     2.05 
#>  4 CA            468    53.2  
#>  5 CO              3     0.341
#>  6 CT              3     0.341
#>  7 DC              9     1.02 
#>  8 FL             33     3.75 
#>  9 GA             33     3.75 
#> 10 HI              1     0.114
#> # ℹ 25 more rows
…
Task: Using event_berk_temp from previous question, create a measure that identifies whether med_inc associated with the event is higher/lower than average income for all events of that type

Steps:

Create measure of average income for each event type [already done]

Create a 0/1 indicator that identifies whether the median income at the event location is higher than the average median income for events of that type.

# average income at recruiting events across all universities
event_berk_tempv2 <- event_berk_temp %>% 
  mutate(gt_avg_inc_type = med_inc > avg_inc_type) %>% 
  select(-(avg_inc)) # drop avg_inc (optional)
event_berk_tempv2 # note how med_ic = NA are treated
#> # A tibble: 879 × 5
#> # Groups:   event_type [5]
#>    event_date event_type  med_inc avg_inc_type gt_avg_inc_type
#>    <date>     <chr>         <dbl>        <dbl> <lgl>          
#>  1 2017-04-11 other        62022.       71186. FALSE          
#>  2 2017-04-14 public hs   125056.       93978. TRUE           
#>  3 2017-04-23 private hs   78897        89242. FALSE          
#>  4 2017-04-23 other        55127        71186. FALSE          
#>  5 2017-04-24 private hs  122307        89242. TRUE           
#>  6 2017-04-24 public hs   133966        93978. TRUE           
#>  7 2017-04-25 other       114580        71186. TRUE           
#>  8 2017-04-25 2yr college 103600.       79183. TRUE           
#>  9 2017-04-26 public hs    38516.       93978. FALSE          
#> 10 2017-04-27 public hs    49950.       93978. FALSE          
#> # ℹ 869 more rows
…
