Into the tidyverse: dplyr, select, filter, and pipes
…
Select variables using select() function

Printing observations is key to investigating data, but datasets often have hundreds, thousands of variables

select() function selects columns of data (i.e., variables) you specify

first argument is the name of data frame object

remaining arguments are variable names, which are separated by commas and without quotes

Without assignment (<-), select() by itself simply prints selected vars

#?select
select(df_event,instnm,event_date,event_type,event_state,med_inc)
#> # A tibble: 18,680 × 5
#>    instnm      event_date event_type event_state med_inc
#>    <chr>       <date>     <chr>      <chr>         <dbl>
#>  1 UM Amherst  2017-10-12 public hs  MA           71714.
#>  2 UM Amherst  2017-10-04 public hs  MA           89122.
#>  3 UM Amherst  2017-10-25 public hs  MA           70136.
#>  4 UM Amherst  2017-10-26 public hs  MA           70136.
#>  5 Stony Brook 2017-10-02 public hs  MA           71024.
#>  6 USCC        2017-09-18 private hs MA           71024.
#>  7 UM Amherst  2017-09-18 private hs MA           71024.
#>  8 UM Amherst  2017-09-26 public hs  MA           97225 
#>  9 UM Amherst  2017-09-26 private hs MA           97225 
#> 10 UM Amherst  2017-10-12 public hs  MA           77800.
#> # ℹ 18,670 more rows
…
Select helper functions

select() can use “helper functions” starts_with(), contains(), and ends_with() to choose columns

?select

Example:

#names(df_event)

select(df_event,instnm,starts_with("event"))
#> # A tibble: 18,680 × 8
#>    instnm      event_date event_type event_state event_inst event_name          
#>    <chr>       <date>     <chr>      <chr>       <chr>      <chr>               
#>  1 UM Amherst  2017-10-12 public hs  MA          In-State   Amherst-Pelham Regi…
#>  2 UM Amherst  2017-10-04 public hs  MA          In-State   Hampshire County Co…
#>  3 UM Amherst  2017-10-25 public hs  MA          In-State   Chicopee High Schoo…
#>  4 UM Amherst  2017-10-26 public hs  MA          In-State   Chicopee Comprehens…
#>  5 Stony Brook 2017-10-02 public hs  MA          Out-State  Easthampton High Sc…
#>  6 USCC        2017-09-18 private hs MA          Out-State  Williston Northampt…
#>  7 UM Amherst  2017-09-18 private hs MA          In-State   Williston-Northampt…
#>  8 UM Amherst  2017-09-26 public hs  MA          In-State   Granby Jr Sr High S…
#>  9 UM Amherst  2017-09-26 private hs MA          In-State   MacDuffie School Vi…
#> 10 UM Amherst  2017-10-12 public hs  MA          In-State   Smith Academy Visit 
#> # ℹ 18,670 more rows
#> # ℹ 2 more variables: event_location_name <chr>, event_datetime_start <dttm>
…
Below, we sort by university, then by date of event, then by ID of high school

#by university, date, ascending school id
select(arrange(df_event, univ_id, desc(event_date), school_id),
       instnm,event_date,event_type,school_id)

#by university, date, descending school id
select(arrange(df_event, univ_id, desc(event_date), desc(school_id)),
       instnm,event_date,event_type,school_id)

Can sort by is.na to put missing values first

select(arrange(df_event, univ_id, desc(event_date), desc(is.na(school_id))),
       instnm,event_date,event_type,school_id)
#> # A tibble: 18,680 × 4
#>    instnm event_date event_type school_id   
#>    <chr>  <date>     <chr>      <chr>       
#>  1 Bama   2017-12-18 other      <NA>        
#>  2 Bama   2017-12-18 private hs A9106483    
#>  3 Bama   2017-12-15 other      <NA>        
#>  4 Bama   2017-12-15 public hs  484473005095
#>  5 Bama   2017-12-15 public hs  062927004516
#>  6 Bama   2017-12-14 other      <NA>        
#>  7 Bama   2017-12-13 other      <NA>        
#>  8 Bama   2017-12-13 public hs  130387001439
#>  9 Bama   2017-12-13 private hs 00071151    
#> 10 Bama   2017-12-13 public hs  063386005296
#> # ℹ 18,670 more rows
…
Use the data from df_event, which has one observation for each off-campus recruiting event a university attends

Sort ascending by “univ_id” and descending by “event_date”

Select four variables in total and sort ascending by “univ_id” and descending by “event_date”

Now using the same variables from above, sort by is.na to put missing values in “school_id” first

Solutions

Sort ascending by “univ_id” and descending by “event_date”

arrange(df_event, univ_id, desc(event_date))
#> # A tibble: 18,680 × 33
#>    instnm univ_id instst   pid event_date event_type zip   school_id    ipeds_id
#>    <chr>    <int> <chr>  <int> <date>     <chr>      <chr> <chr>           <int>
#>  1 Bama    100751 AL      7115 2017-12-18 private hs 77089 A9106483           NA
#>  2 Bama    100751 AL      7121 2017-12-18 other      <NA>  <NA>               NA
#>  3 Bama    100751 AL      7114 2017-12-15 public hs  75165 484473005095       NA
#>  4 Bama    100751 AL      7100 2017-12-15 public hs  93012 062927004516       NA
#>  5 Bama    100751 AL      7073 2017-12-15 other      98027 <NA>               NA
#>  6 Bama    100751 AL      7072 2017-12-14 other      98007 <NA>               NA
#>  7 Bama    100751 AL      7118 2017-12-13 public hs  31906 130387001439       NA
#>  8 Bama    100751 AL      7099 2017-12-13 private hs 90293 00071151           NA
#>  9 Bama    100751 AL      7109 2017-12-13 public hs  92630 063386005296       NA
#> 10 Bama    100751 AL      7071 2017-12-13 other      98032 <NA>               NA
#> # ℹ 18,670 more rows
#> # ℹ 24 more variables: event_state <chr>, event_inst <chr>, med_inc <dbl>,
#> #   pop_total <dbl>, pct_white_zip <dbl>, pct_black_zip <dbl>,
#> #   pct_asian_zip <dbl>, pct_hispanic_zip <dbl>, pct_amerindian_zip <dbl>,
#> #   pct_nativehawaii_zip <dbl>, pct_tworaces_zip <dbl>,
#> #   pct_otherrace_zip <dbl>, fr_lunch <dbl>, titlei_status_pub <fct>,
#> #   total_12 <dbl>, school_type_pri <int>, school_type_pub <int>, …

Select four variables in total and sort ascending by “univ_id” and descending by “event_date”

select(arrange(df_event, univ_id, desc(event_date)), univ_id, event_date, 
       instnm, event_type)
#> # A tibble: 18,680 × 4
#>    univ_id event_date instnm event_type
#>      <int> <date>     <chr>  <chr>     
#>  1  100751 2017-12-18 Bama   private hs
#>  2  100751 2017-12-18 Bama   other     
#>  3  100751 2017-12-15 Bama   public hs 
#>  4  100751 2017-12-15 Bama   public hs 
#>  5  100751 2017-12-15 Bama   other     
#>  6  100751 2017-12-14 Bama   other     
#>  7  100751 2017-12-13 Bama   public hs 
#>  8  100751 2017-12-13 Bama   private hs
#>  9  100751 2017-12-13 Bama   public hs 
#> 10  100751 2017-12-13 Bama   other     
#> # ℹ 18,670 more rows

Select the variables “univ_id”, “event_date”, and “school_id” and sort by is.na to put missing values in “school_id” first.

select(arrange(df_event, univ_id, desc(event_date), desc(is.na(school_id))), 
       univ_id, event_date, school_id)
#> # A tibble: 18,680 × 3
#>    univ_id event_date school_id   
#>      <int> <date>     <chr>       
#>  1  100751 2017-12-18 <NA>        
#>  2  100751 2017-12-18 A9106483    
#>  3  100751 2017-12-15 <NA>        
#>  4  100751 2017-12-15 484473005095
#>  5  100751 2017-12-15 062927004516
#>  6  100751 2017-12-14 <NA>        
#>  7  100751 2017-12-13 <NA>        
#>  8  100751 2017-12-13 130387001439
#>  9  100751 2017-12-13 00071151    
#> 10  100751 2017-12-13 063386005296
#> # ℹ 18,670 more rows
…
Now using the code for question 1, filter schools where at least 50% of students are proficient in math & reading.

Count the number of schools from question 2.

Using school_v2, using mutate() combined with is.na() create a dichotomous indicator variable med_inc_na that identifies whether med_inc is missing (NA) or not. And then use syntax count(var_name) to create frequency table of variable med_inc_na. How many observations are missing?

Solutions for exercise using mutate()

Using the object school_v2, select the following variables (num_prof_math, num_took_math, num_prof_read, num_took_read) and create a measure of percent proficient in math pct_prof_math and percent proficient in reading pct_prof_read.

school_v2 %>%
  select(num_prof_math, num_took_math, num_prof_read, num_took_read) %>%
  mutate(pct_prof_math = num_prof_math/num_took_math,
         pct_prof_read = num_prof_read/num_took_read) 
#> # A tibble: 21,301 × 6
#>    num_prof_math num_took_math num_prof_read num_took_read pct_prof_math
#>            <dbl>         <dbl>         <dbl>         <dbl>         <dbl>
#>  1         24.8            146         25.0            147         0.17 
#>  2          1.7             17          1.7             17         0.1  
#>  3          3.5             14          3.5             14         0.25 
#>  4          3               30          3               30         0.1  
#>  5          2.8             28          2.8             28         0.1  
#>  6          2.5             25          2.4             24         0.1  
#>  7          1.55            62          1.55            62         0.025
#>  8          2.1             21          2.2             22         0.1  
#>  9          2.3             23          2.3             23         0.1  
#> 10          1.9             19          1.9             19         0.1  
#> # ℹ 21,291 more rows
#> # ℹ 1 more variable: pct_prof_read <dbl>

Now using the code for question 1, filter schools where at least 50% of students are proficient in math & reading.

school_v2 %>%
  select(num_prof_math, num_took_math, num_prof_read, num_took_read) %>%
  mutate(pct_prof_math = num_prof_math/num_took_math,
         pct_prof_read = num_prof_read/num_took_read) %>%
  filter(pct_prof_math >= 0.5 & pct_prof_read >= 0.5) 
#> # A tibble: 7,760 × 6
#>    num_prof_math num_took_math num_prof_read num_took_read pct_prof_math
#>            <dbl>         <dbl>         <dbl>         <dbl>         <dbl>
#>  1         135.            260         149.            261         0.52 
#>  2         299.            475         418             475         0.63 
#>  3         213.            410         332.            410         0.52 
#>  4          54.6           105          96.6           105         0.52 
#>  5         111.            121         118.            121         0.92 
#>  6        1057.           1994        1477.           2204         0.53 
#>  7         100.            103         125.            128         0.975
#>  8          56.4            99          84.4           148         0.57 
#>  9         445.            586         392.            594         0.76 
#> 10          56.0            59          53.1            61         0.95 
#> # ℹ 7,750 more rows
#> # ℹ 1 more variable: pct_prof_read <dbl>
…
