Visualizations with ggplot2
…
#check
els_parphd %>%
  select(f3evratt, ever_college, bystexp, ed_aspiration)

# A tibble: 1,121 × 4
   f3evratt                          ever_college  bystexp         ed_aspiration
   <fct>                             <fct>         <fct>           <fct>        
 1 Has some postsecondary enrollment Some college  Obtain PhD, MD… Doctorate    
 2 Has some postsecondary enrollment Some college  Obtain PhD, MD… Doctorate    
 3 Has some postsecondary enrollment Some college  Obtain PhD, MD… Doctorate    
 4 Has some postsecondary enrollment Some college  Graduate from … Bachelor's   
 5 Has some postsecondary enrollment Some college  Obtain Master'… Master's     
 6 Has some postsecondary enrollment Some college  Don't know      Don't know   
 7 No postsecondary enrollment       No college    Survey compone… Skip         
 8 Nonrespondent                     Nonrespondent Graduate from … Bachelor's   
 9 Has some postsecondary enrollment Some college  Graduate from … Bachelor's   
10 Has some postsecondary enrollment Some college  Nonrespondent   Nonresponse  
# ℹ 1,111 more rows
…
