Tidy data
…
What does each row represent in the data frame object ipeds_hc_temp?

Below we load data on 12-month enrollment headcount for 2015-16 academic year from the Integrated Postsecondary Education Data System (IPEDS)

ipeds_hc_temp <- read_dta(file="https://github.com/ozanj/rclass/raw/master/data/ipeds/effy/ey15-16_hc.dta", encoding=NULL) %>% 
  select(unitid,lstudy,efytotlt) %>% arrange(unitid,lstudy)

ipeds_hc_temp
#> # A tibble: 15,726 × 3
#>    unitid lstudy                efytotlt
#>     <dbl> <dbl+lbl>                <dbl>
#>  1 100654   1 [Undergraduate]       4865
#>  2 100654   3 [Graduate]            1292
#>  3 100654 999 [Generated total]     6157
#>  4 100663   1 [Undergraduate]      13440
#>  5 100663   3 [Graduate]            8114
#>  6 100663 999 [Generated total]    21554
#>  7 100690   1 [Undergraduate]        415
#>  8 100690   3 [Graduate]             415
#>  9 100690 999 [Generated total]      830
#> 10 100706   1 [Undergraduate]       6994
#> # ℹ 15,716 more rows
…
Example: Renaming pivoted columns

Sometimes, the name of the columns we want to pivot contain additional information that we want to remove before transforming to tidy data. Consider the following example where the columns all contain the prefix tot_:

nces_table1
#> # A tibble: 51 × 5
#>    state                tot_2000 tot_2010 tot_2011 tot_2012
#>    <chr>                   <dbl>    <dbl>    <dbl>    <dbl>
#>  1 Alabama                728351   730427   731556   740475
#>  2 Alaska                 105333   132104   131166   131483
#>  3 Arizona                877696  1067210  1024454   990378
#>  4 Arkansas               449959   482114   483114   486157
#>  5 California            6050753  6169427  6202862  6178788
#>  6 Colorado               724349   842864   853610   863121
#>  7 Connecticut            562179   552919   543883   549295
#>  8 Delaware               114676   128342   128470   127791
#>  9 District of Columbia    68380    71263    72329    75411
#> 10 Florida               2434755  2641555  2668037  2691881
#> # ℹ 41 more rows

 If we pivot the table as is, we can see the tot_ prefixes appearing in the year column:

nces_table1 %>%
  pivot_longer(
    cols = -state,                # pivot all columns except `state`
    names_to = 'year',            # name of column that holds the pivoted values
    values_to = 'total_students'  # name of column that holds the original cell values
  )
#> # A tibble: 204 × 3
#>    state   year     total_students
#>    <chr>   <chr>             <dbl>
#>  1 Alabama tot_2000         728351
#>  2 Alabama tot_2010         730427
#>  3 Alabama tot_2011         731556
#>  4 Alabama tot_2012         740475
#>  5 Alaska  tot_2000         105333
#>  6 Alaska  tot_2010         132104
#>  7 Alaska  tot_2011         131166
#>  8 Alaska  tot_2012         131483
#>  9 Arizona tot_2000         877696
#> 10 Arizona tot_2010        1067210
#> # ℹ 194 more rows

 To fix this, we can specify the names_prefix argument in pivot_longer() to match and remove the part of the names that we don’t want to keep:

nces_table1 %>%
  pivot_longer(
    cols = -state,                
    names_to = 'year',            
    names_prefix = 'tot_',        # rename pivoted values by striping the prefix 'tot_'
    values_to = 'total_students'
  )
#> # A tibble: 204 × 3
#>    state   year  total_students
#>    <chr>   <chr>          <dbl>
#>  1 Alabama 2000          728351
#>  2 Alabama 2010          730427
#>  3 Alabama 2011          731556
#>  4 Alabama 2012          740475
#>  5 Alaska  2000          105333
#>  6 Alaska  2010          132104
#>  7 Alaska  2011          131166
#>  8 Alaska  2012          131483
#>  9 Arizona 2000          877696
#> 10 Arizona 2010         1067210
#> # ℹ 194 more rows

Example: Pivoting columns by name pattern

Consider the following example where the columns we want to reshape belongs to multiple variables. As seen, the 4 columns starting with tot_ shows total student enrollment while the 4 columns starting with frl_ shows number of students on free/reduced lunch:

nces_table2
#> # A tibble: 51 × 9
#>    state tot_2000 tot_2010 tot_2011 tot_2012 frl_2000 frl_2010 frl_2011 frl_2012
#>    <chr>    <dbl>    <dbl>    <dbl>    <dbl>    <dbl>    <dbl>    <dbl>    <dbl>
#>  1 Alab…   728351   730427   731556   740475   335143   402386  420447    429604
#>  2 Alas…   105333   132104   131166   131483    32468    50701   53238     53082
#>  3 Ariz…   877696  1067210  1024454   990378   274277   482044  511885    514193
#>  4 Arka…   449959   482114   483114   486157   205058   291608  294324    298573
#>  5 Cali…  6050753  6169427  6202862  6178788  2820611  3335885 3353964.  3478407
#>  6 Colo…   724349   842864   853610   863121   195148   336426  348896    358876
#>  7 Conn…   562179   552919   543883   549295   143030   190554  194339    201085
#>  8 Dela…   114676   128342   128470   127791    37766    61564   62774     66413
#>  9 Dist…    68380    71263    72329    75411    47839    52027   45199     46416
#> 10 Flor…  2434755  2641555  2668037  2691881  1079009  1479519 1535670   1576379
#> # ℹ 41 more rows

Applying the same approach we used for nces_table1 doesn’t give us the structure we want

nces_table2 %>%
  pivot_longer(
    cols = -state,                
    names_to = 'year',            
    names_prefix = 'tot_',        # rename pivoted values by striping the prefix 'tot_'
    values_to = 'total_students'
  )
#> # A tibble: 408 × 3
#>    state   year     total_students
#>    <chr>   <chr>             <dbl>
#>  1 Alabama 2000             728351
#>  2 Alabama 2010             730427
#>  3 Alabama 2011             731556
#>  4 Alabama 2012             740475
#>  5 Alabama frl_2000         335143
#>  6 Alabama frl_2010         402386
#>  7 Alabama frl_2011         420447
#>  8 Alabama frl_2012         429604
#>  9 Alaska  2000             105333
#> 10 Alaska  2010             132104
#> # ℹ 398 more rows
…
nces_table2 %>%
  pivot_longer(
    -state,                          # pivot all columns except `state`
    names_sep = '_',                  # use '_' as column name separator    
    names_to = c('.value', 'year')  # keep `tot` & `frl` as separate columns, pivot year values
  )
#> # A tibble: 204 × 4
#>    state   year      tot    frl
#>    <chr>   <chr>   <dbl>  <dbl>
#>  1 Alabama 2000   728351 335143
#>  2 Alabama 2010   730427 402386
#>  3 Alabama 2011   731556 420447
#>  4 Alabama 2012   740475 429604
#>  5 Alaska  2000   105333  32468
#>  6 Alaska  2010   132104  50701
#>  7 Alaska  2011   131166  53238
#>  8 Alaska  2012   131483  53082
#>  9 Arizona 2000   877696 274277
#> 10 Arizona 2010  1067210 482044
#> # ℹ 194 more rows

 Note the difference if we used .value as the second element in names_to:

nces_table2 %>%
  pivot_longer(
    -state,
    names_to = c('measure', '.value'),  # pivot `tot`/`frl`, keep years as separate columns
    names_sep = '_'
  )
#> # A tibble: 102 × 6
#>    state      measure  `2000`  `2010`   `2011`  `2012`
#>    <chr>      <chr>     <dbl>   <dbl>    <dbl>   <dbl>
#>  1 Alabama    tot      728351  730427  731556   740475
#>  2 Alabama    frl      335143  402386  420447   429604
#>  3 Alaska     tot      105333  132104  131166   131483
#>  4 Alaska     frl       32468   50701   53238    53082
#>  5 Arizona    tot      877696 1067210 1024454   990378
#>  6 Arizona    frl      274277  482044  511885   514193
#>  7 Arkansas   tot      449959  482114  483114   486157
#>  8 Arkansas   frl      205058  291608  294324   298573
#>  9 California tot     6050753 6169427 6202862  6178788
#> 10 California frl     2820611 3335885 3353964. 3478407
#> # ℹ 92 more rows
…
Example: Pivoting with multiple value variables

Sometimes, we want to spread a dataset that contains multiple value variables. Consider the following example where there are separate enrollment variables for total, men, and women:

ipeds_table1
#> # A tibble: 15,726 × 5
#>    unitid efytotlt efytotlm efytotlw level
#>     <dbl>    <dbl>    <dbl>    <dbl> <chr>
#>  1 100654     6157     2646     3511 all  
#>  2 100654     4865     2258     2607 ug   
#>  3 100654     1292      388      904 grad 
#>  4 100663    21554     8383    13171 all  
#>  5 100663    13440     5552     7888 ug   
#>  6 100663     8114     2831     5283 grad 
#>  7 100690      830      337      493 all  
#>  8 100690      415      177      238 ug   
#>  9 100690      415      160      255 grad 
#> 10 100706     9206     5194     4012 all  
#> # ℹ 15,716 more rows

 The goal is to turn the values in levels into columns - but which of the enrollment variables should be used as the values for the new columns? The solution is to create columns for each of the enrollment variables:

ipeds_table1 %>%
  pivot_wider(
    names_from = level,
    values_from = c(efytotlt, efytotlm, efytotlw)
  )
#> # A tibble: 6,951 × 10
#>    unitid efytotlt_all efytotlt_ug efytotlt_grad efytotlm_all efytotlm_ug
#>     <dbl>        <dbl>       <dbl>         <dbl>        <dbl>       <dbl>
#>  1 100654         6157        4865          1292         2646        2258
#>  2 100663        21554       13440          8114         8383        5552
#>  3 100690          830         415           415          337         177
#>  4 100706         9206        6994          2212         5194        3983
#>  5 100724         6101        5373           728         2321        2105
#>  6 100751        41507       35199          6308        18526       15946
#>  7 100760         2379        2379            NA         1027        1027
#>  8 100812         4124        4124            NA         1478        1478
#>  9 100830         5996        5072           924         2158        1847
#> 10 100858        29237       22953          6284        14893       11871
#> # ℹ 6,941 more rows
#> # ℹ 4 more variables: efytotlm_grad <dbl>, efytotlw_all <dbl>,
#> #   efytotlw_ug <dbl>, efytotlw_grad <dbl>
…
values_to: The name of the variable that will contain values in the tidy dataset you create and whose values are spread across multiple columns in the untidy dataset

This var doesn’t yet exist in untidy data, but will be a variable name in the tidy data

in this example, the value variable is frl_students

total %>%
  pivot_longer(
    cols = starts_with("p_frl_"),
    names_to = "year",
    names_prefix = ("p_frl_"),
    values_to = "pct_frl"
  )
#> # A tibble: 204 × 3
#>    state   year  pct_frl
#>    <chr>   <chr>   <dbl>
#>  1 Alabama 2000     46.0
#>  2 Alabama 2010     55.1
#>  3 Alabama 2011     57.5
#>  4 Alabama 2012     58.0
#>  5 Alaska  2000     30.8
#>  6 Alaska  2010     38.4
#>  7 Alaska  2011     40.6
#>  8 Alaska  2012     40.4
#>  9 Arizona 2000     31.2
#> 10 Arizona 2010     45.2
#> # ℹ 194 more rows
…
names_from. Column name in the untidy data whose values will become variable names in the tidy data that contains variable names

this variable name exists in the untidy data

in ipeds_hc the key column is lstudy; the values of lstudy, will become variable names in the tidy data

values_from. Column name in untidy data that contains values for the new variables that will be created in the tidy data

this is a varname that exists in the untidy data

in ipeds_hc the value column is efytotlt; the values of efytotlt will become the values of the new variables in the tidy data

ipeds_hc %>% 
    pivot_wider(names_from = lstudy, values_from = efytotlt) #notice it uses the underlying data not labels
#> # A tibble: 6,951 × 5
#>    instnm                              unitid   `1`   `3` `999`
#>    <chr>                                <dbl> <dbl> <dbl> <dbl>
#>  1 Alabama A & M University            100654  4865  1292  6157
#>  2 University of Alabama at Birmingham 100663 13440  8114 21554
#>  3 Amridge University                  100690   415   415   830
#>  4 University of Alabama in Huntsville 100706  6994  2212  9206
#>  5 Alabama State University            100724  5373   728  6101
#>  6 The University of Alabama           100751 35199  6308 41507
#>  7 Central Alabama Community College   100760  2379    NA  2379
#>  8 Athens State University             100812  4124    NA  4124
#>  9 Auburn University at Montgomery     100830  5072   924  5996
#> 10 Auburn University                   100858 22953  6284 29237
#> # ℹ 6,941 more rows
…
head(ipeds_hcv2)
#> # A tibble: 6 × 4
#>   instnm                              unitid efytotlt level
#>   <chr>                                <dbl>    <dbl> <chr>
#> 1 Alabama A & M University            100654     4865 ug   
#> 2 Alabama A & M University            100654     1292 grad 
#> 3 Alabama A & M University            100654     6157 all  
#> 4 University of Alabama at Birmingham 100663    13440 ug   
#> 5 University of Alabama at Birmingham 100663     8114 grad 
#> 6 University of Alabama at Birmingham 100663    21554 all

ipeds_hcv2 %>% select(instnm,unitid,level,efytotlt) %>%
    pivot_wider(names_from = level, values_from = efytotlt) #nicer!
#> # A tibble: 6,951 × 5
#>    instnm                              unitid    ug  grad   all
#>    <chr>                                <dbl> <dbl> <dbl> <dbl>
#>  1 Alabama A & M University            100654  4865  1292  6157
#>  2 University of Alabama at Birmingham 100663 13440  8114 21554
#>  3 Amridge University                  100690   415   415   830
#>  4 University of Alabama in Huntsville 100706  6994  2212  9206
#>  5 Alabama State University            100724  5373   728  6101
#>  6 The University of Alabama           100751 35199  6308 41507
#>  7 Central Alabama Community College   100760  2379    NA  2379
#>  8 Athens State University             100812  4124    NA  4124
#>  9 Auburn University at Montgomery     100830  5072   924  5996
#> 10 Auburn University                   100858 22953  6284 29237
#> # ℹ 6,941 more rows
…
Now, let’s print some rows

There is one row for each college-level_of_study

Some colleges have three rows of data (ug, grad, all)

Colleges that don’t have any undergraduates or don’t have any graduate students only have two rows of data

ipeds_hc_na
#> # A tibble: 6,265 × 5
#>    instnm                               unitid level efytotlt efybkaam
#>    <chr>                                 <dbl> <chr>    <dbl>    <dbl>
#>  1 South University-Montgomery          101116 ug         777      122
#>  2 South University-Montgomery          101116 grad       218       40
#>  3 South University-Montgomery          101116 all        995      162
#>  4 New Beginning College of Cosmetology 101277 ug         132        0
#>  5 New Beginning College of Cosmetology 101277 all        132        0
#>  6 Herzing University-Birmingham        101365 ug         675       73
#>  7 Herzing University-Birmingham        101365 grad        15        5
#>  8 Herzing University-Birmingham        101365 all        690       78
#>  9 Prince Institute-Southeast           101958 ug          34        0
#> 10 Prince Institute-Southeast           101958 all         34        0
#> # ℹ 6,255 more rows

Now let’s create new versions of the enrollment variables, that replace 0 with NA

ipeds_hc_na <- ipeds_hc_na %>% 
  mutate(
    efytotltv2 = ifelse(efytotlt == 0, NA, efytotlt),
    efybkaamv2 = ifelse(efybkaam == 0, NA, efybkaam)
  ) %>% select(instnm,unitid,level,efytotlt,efytotltv2,efybkaam,efybkaamv2)

ipeds_hc_na %>% select(unitid,level,efytotlt,efytotltv2,efybkaam,efybkaamv2)
#> # A tibble: 6,265 × 6
#>    unitid level efytotlt efytotltv2 efybkaam efybkaamv2
#>     <dbl> <chr>    <dbl>      <dbl>    <dbl>      <dbl>
#>  1 101116 ug         777        777      122        122
#>  2 101116 grad       218        218       40         40
#>  3 101116 all        995        995      162        162
#>  4 101277 ug         132        132        0         NA
#>  5 101277 all        132        132        0         NA
#>  6 101365 ug         675        675       73         73
#>  7 101365 grad        15         15        5          5
#>  8 101365 all        690        690       78         78
#>  9 101958 ug          34         34        0         NA
#> 10 101958 all         34         34        0         NA
#> # ℹ 6,255 more rows
…
variable efybkaamv2 has 0 explicit missing values and 0 implicit missing values

New Beginning College of Cosmetology has two rows (because they have no graduate students):

variable efytotltv2 has 0 explicit missing values and 1 implicit missing values (no row for grad students)

variable efybkaamv2 has 2 explicit missing values and 1 implicit missing values (no row for grad students)

6.4 Applying complete() to IPEDS dataset

Let’s apply complete() to our IPEDS dataset

ipeds_hc_nav2
#> # A tibble: 6,265 × 5
#>    instnm                               unitid level efytotltv2 efybkaamv2
#>    <chr>                                 <dbl> <chr>      <dbl>      <dbl>
#>  1 South University-Montgomery          101116 ug           777        122
#>  2 South University-Montgomery          101116 grad         218         40
#>  3 South University-Montgomery          101116 all          995        162
#>  4 New Beginning College of Cosmetology 101277 ug           132         NA
#>  5 New Beginning College of Cosmetology 101277 all          132         NA
#>  6 Herzing University-Birmingham        101365 ug           675         73
#>  7 Herzing University-Birmingham        101365 grad          15          5
#>  8 Herzing University-Birmingham        101365 all          690         78
#>  9 Prince Institute-Southeast           101958 ug            34         NA
#> 10 Prince Institute-Southeast           101958 all           34         NA
#> # ℹ 6,255 more rows

ipeds_complete <- ipeds_hc_nav2 %>% select(unitid,level,efytotltv2,efybkaamv2) %>%
  complete(unitid, level)

ipeds_complete
#> # A tibble: 9,063 × 4
#>    unitid level efytotltv2 efybkaamv2
#>     <dbl> <chr>      <dbl>      <dbl>
#>  1 101116 all          995        162
#>  2 101116 grad         218         40
#>  3 101116 ug           777        122
#>  4 101277 all          132         NA
#>  5 101277 grad          NA         NA
#>  6 101277 ug           132         NA
#>  7 101365 all          690         78
#>  8 101365 grad          15          5
#>  9 101365 ug           675         73
#> 10 101958 all           34         NA
#> # ℹ 9,053 more rows
…
