Strings & Dates
…
p12_datetime_df <- p12_df %>% select(created_at) %>%
  mutate(
      dt_chr = as.character(created_at), #convert to character
      date_chr = str_sub(dt_chr, 1, 10), #subset values in position 1 and 10 to grab the date
      yr_chr = str_sub(dt_chr, 1, 4), #subset values in position 1 and 4 to grab the year
      mth_chr = str_sub(dt_chr, 6, 7),
      day_chr = str_sub(dt_chr, 9, 10),
      hr_chr = str_sub(dt_chr, -8, -7),
      min_chr = str_sub(dt_chr, -5, -4),
      sec_chr = str_sub(dt_chr, -2, -1)
    )
p12_datetime_df
#> # A tibble: 328 × 9
#>    created_at          dt_chr     date_chr yr_chr mth_chr day_chr hr_chr min_chr
#>    <dttm>              <chr>      <chr>    <chr>  <chr>   <chr>   <chr>  <chr>  
#>  1 2020-04-25 22:37:18 2020-04-2… 2020-04… 2020   04      25      22     37     
#>  2 2020-04-23 21:11:49 2020-04-2… 2020-04… 2020   04      23      21     11     
#>  3 2020-04-21 04:00:00 2020-04-2… 2020-04… 2020   04      21      04     00     
#>  4 2020-04-24 03:00:00 2020-04-2… 2020-04… 2020   04      24      03     00     
#>  5 2020-04-20 19:00:21 2020-04-2… 2020-04… 2020   04      20      19     00     
#>  6 2020-04-20 02:20:01 2020-04-2… 2020-04… 2020   04      20      02     20     
#>  7 2020-04-22 04:00:00 2020-04-2… 2020-04… 2020   04      22      04     00     
#>  8 2020-04-25 17:00:00 2020-04-2… 2020-04… 2020   04      25      17     00     
#>  9 2020-04-21 15:13:06 2020-04-2… 2020-04… 2020   04      21      15     13     
#> 10 2020-04-21 17:52:47 2020-04-2… 2020-04… 2020   04      21      17     52     
#> # ℹ 318 more rows
#> # ℹ 1 more variable: sec_chr <chr>
…
typeof(d)
#> [1] "double"

# Number of days since January 1, 1970
as.numeric(d)
#> [1] 19723

Example: Creating Date objects from dataframe column

Using the p12_datetime_df we created earlier, we can create Date objects from the date_chr column:

# Use `ymd()` to parse the string stored in the `date_chr` column
p12_datetime_df %>% select(created_at, dt_chr, date_chr) %>%
  mutate(date_ymd = ymd(date_chr))
#> # A tibble: 328 × 4
#>    created_at          dt_chr              date_chr   date_ymd  
#>    <dttm>              <chr>               <chr>      <date>    
#>  1 2020-04-25 22:37:18 2020-04-25 22:37:18 2020-04-25 2020-04-25
#>  2 2020-04-23 21:11:49 2020-04-23 21:11:49 2020-04-23 2020-04-23
#>  3 2020-04-21 04:00:00 2020-04-21 04:00:00 2020-04-21 2020-04-21
#>  4 2020-04-24 03:00:00 2020-04-24 03:00:00 2020-04-24 2020-04-24
#>  5 2020-04-20 19:00:21 2020-04-20 19:00:21 2020-04-20 2020-04-20
#>  6 2020-04-20 02:20:01 2020-04-20 02:20:01 2020-04-20 2020-04-20
#>  7 2020-04-22 04:00:00 2020-04-22 04:00:00 2020-04-22 2020-04-22
#>  8 2020-04-25 17:00:00 2020-04-25 17:00:00 2020-04-25 2020-04-25
#>  9 2020-04-21 15:13:06 2020-04-21 15:13:06 2020-04-21 2020-04-21
#> 10 2020-04-21 17:52:47 2020-04-21 17:52:47 2020-04-21 2020-04-21
#> # ℹ 318 more rows
…
# Number of seconds since January 1, 1970
as.numeric(dt)  # Note that this is indeed 1 sec after the previous example
#> [1] 1704067200

Example: Creating POSIXct objects from dataframe column

Using the p12_datetime_df we created earlier, we can recreate the created_at column (class POSIXct) from the dt_chr column (class character):

# Use `ymd_hms()` to parse the string stored in the `dt_chr` column
p12_datetime_df %>% select(created_at, dt_chr) %>%
  mutate(datetime_ymd_hms = ymd_hms(dt_chr))
#> # A tibble: 328 × 3
#>    created_at          dt_chr              datetime_ymd_hms   
#>    <dttm>              <chr>               <dttm>             
#>  1 2020-04-25 22:37:18 2020-04-25 22:37:18 2020-04-25 22:37:18
#>  2 2020-04-23 21:11:49 2020-04-23 21:11:49 2020-04-23 21:11:49
#>  3 2020-04-21 04:00:00 2020-04-21 04:00:00 2020-04-21 04:00:00
#>  4 2020-04-24 03:00:00 2020-04-24 03:00:00 2020-04-24 03:00:00
#>  5 2020-04-20 19:00:21 2020-04-20 19:00:21 2020-04-20 19:00:21
#>  6 2020-04-20 02:20:01 2020-04-20 02:20:01 2020-04-20 02:20:01
#>  7 2020-04-22 04:00:00 2020-04-22 04:00:00 2020-04-22 04:00:00
#>  8 2020-04-25 17:00:00 2020-04-25 17:00:00 2020-04-25 17:00:00
#>  9 2020-04-21 15:13:06 2020-04-21 15:13:06 2020-04-21 15:13:06
#> 10 2020-04-21 17:52:47 2020-04-21 17:52:47 2020-04-21 17:52:47
#> # ℹ 318 more rows
…
# Remember that the default values for month and day would be 1L
d <- make_date(2024)
d
#> [1] "2024-01-01"

Example: Creating Date objects from dataframe columns

Using the p12_datetime_df we created earlier, we can create Date objects from the various date component columns:

# Use `make_date()` to create a `Date` object from the `yr_chr`, `mth_chr`, `day_chr` fields
p12_datetime_df %>% select(created_at, dt_chr, yr_chr, mth_chr, day_chr) %>%
  mutate(date_make_date = make_date(year = yr_chr, month = mth_chr, day = day_chr))
#> # A tibble: 328 × 6
#>    created_at          dt_chr              yr_chr mth_chr day_chr date_make_date
#>    <dttm>              <chr>               <chr>  <chr>   <chr>   <date>        
#>  1 2020-04-25 22:37:18 2020-04-25 22:37:18 2020   04      25      2020-04-25    
#>  2 2020-04-23 21:11:49 2020-04-23 21:11:49 2020   04      23      2020-04-23    
#>  3 2020-04-21 04:00:00 2020-04-21 04:00:00 2020   04      21      2020-04-21    
#>  4 2020-04-24 03:00:00 2020-04-24 03:00:00 2020   04      24      2020-04-24    
#>  5 2020-04-20 19:00:21 2020-04-20 19:00:21 2020   04      20      2020-04-20    
#>  6 2020-04-20 02:20:01 2020-04-20 02:20:01 2020   04      20      2020-04-20    
#>  7 2020-04-22 04:00:00 2020-04-22 04:00:00 2020   04      22      2020-04-22    
#>  8 2020-04-25 17:00:00 2020-04-25 17:00:00 2020   04      25      2020-04-25    
#>  9 2020-04-21 15:13:06 2020-04-21 15:13:06 2020   04      21      2020-04-21    
#> 10 2020-04-21 17:52:47 2020-04-21 17:52:47 2020   04      21      2020-04-21    
#> # ℹ 318 more rows
…
Example: Creating POSIXct objects from dataframe columns

Using the p12_datetime_df we created earlier, we can recreate the created_at column (class POSIXct) from the various date and time component columns (class character):

# Use `make_datetime()` to create a `POSIXct` object from the `yr_chr`, `mth_chr`, `day_chr`, `hr_chr`, `min_chr`, `sec_chr` fields
# Convert inputs to integers first
p12_datetime_df %>%
  mutate(datetime_make_datetime = make_datetime(
    as.integer(yr_chr), as.integer(mth_chr), as.integer(day_chr), 
    as.integer(hr_chr), as.integer(min_chr), as.integer(sec_chr)
  )) %>%
  select(datetime_make_datetime, yr_chr, mth_chr, day_chr, hr_chr, min_chr, sec_chr)
#> # A tibble: 328 × 7
#>    datetime_make_datetime yr_chr mth_chr day_chr hr_chr min_chr sec_chr
#>    <dttm>                 <chr>  <chr>   <chr>   <chr>  <chr>   <chr>  
#>  1 2020-04-25 22:37:18    2020   04      25      22     37      18     
#>  2 2020-04-23 21:11:49    2020   04      23      21     11      49     
#>  3 2020-04-21 04:00:00    2020   04      21      04     00      00     
#>  4 2020-04-24 03:00:00    2020   04      24      03     00      00     
#>  5 2020-04-20 19:00:21    2020   04      20      19     00      21     
#>  6 2020-04-20 02:20:01    2020   04      20      02     20      01     
#>  7 2020-04-22 04:00:00    2020   04      22      04     00      00     
#>  8 2020-04-25 17:00:00    2020   04      25      17     00      00     
#>  9 2020-04-21 15:13:06    2020   04      21      15     13      06     
#> 10 2020-04-21 17:52:47    2020   04      21      17     52      47     
#> # ℹ 318 more rows
…
Using the p12_datetime_df we created earlier, we can isolate the various date/time components from the POSIXct object in the created_at column:

# The extracted date/time components will be of numeric type
p12_datetime_df %>% select(created_at) %>%
  mutate(
    yr_num = year(created_at),
    mth_num = month(created_at),
    day_num = day(created_at),
    hr_num = hour(created_at),
    min_num = minute(created_at),
    sec_num = second(created_at),
    ampm = ifelse(am(created_at), 'AM', 'PM')  # am()/pm() returns TRUE/FALSE
  )
#> # A tibble: 328 × 8
#>    created_at          yr_num mth_num day_num hr_num min_num sec_num ampm 
#>    <dttm>               <dbl>   <dbl>   <int>  <int>   <int>   <dbl> <chr>
#>  1 2020-04-25 22:37:18   2020       4      25     22      37      18 PM   
#>  2 2020-04-23 21:11:49   2020       4      23     21      11      49 PM   
#>  3 2020-04-21 04:00:00   2020       4      21      4       0       0 AM   
#>  4 2020-04-24 03:00:00   2020       4      24      3       0       0 AM   
#>  5 2020-04-20 19:00:21   2020       4      20     19       0      21 PM   
#>  6 2020-04-20 02:20:01   2020       4      20      2      20       1 AM   
#>  7 2020-04-22 04:00:00   2020       4      22      4       0       0 AM   
#>  8 2020-04-25 17:00:00   2020       4      25     17       0       0 PM   
#>  9 2020-04-21 15:13:06   2020       4      21     15      13       6 PM   
#> 10 2020-04-21 17:52:47   2020       4      21     17      52      47 PM   
#> # ℹ 318 more rows
…
